<?xml version="1.0" encoding="UTF-8" standalone="no"?>
<!-- Created with Inkscape (http://www.inkscape.org/) -->

<svg
   xmlns:dc="http://purl.org/dc/elements/1.1/"
   xmlns:cc="http://creativecommons.org/ns#"
   xmlns:rdf="http://www.w3.org/1999/02/22-rdf-syntax-ns#"
   xmlns:svg="http://www.w3.org/2000/svg"
   xmlns="http://www.w3.org/2000/svg"
   xmlns:sodipodi="http://sodipodi.sourceforge.net/DTD/sodipodi-0.dtd"
   xmlns:inkscape="http://www.inkscape.org/namespaces/inkscape"
   id="svg4206"
   version="1.1"
   inkscape:version="0.91 r13725"
   width="249.375"
   height="270"
   viewBox="0 0 249.375 270"
   sodipodi:docname="AntSilhouette.svg">
  <metadata
     id="metadata4212">
    <rdf:RDF>
      <cc:Work
         rdf:about="">
        <dc:format>image/svg+xml</dc:format>
        <dc:type
           rdf:resource="http://purl.org/dc/dcmitype/StillImage" />
        <dc:title></dc:title>
      </cc:Work>
    </rdf:RDF>
  </metadata>
  <defs
     id="defs4210" />
  <sodipodi:namedview
     pagecolor="#ffffff"
     bordercolor="#666666"
     borderopacity="1"
     objecttolerance="10"
     gridtolerance="10"
     guidetolerance="10"
     inkscape:pageopacity="0"
     inkscape:pageshadow="2"
     inkscape:window-width="1600"
     inkscape:window-height="837"
     id="namedview4208"
     showgrid="false"
     inkscape:zoom="2.4814815"
     inkscape:cx="124.6875"
     inkscape:cy="135"
     inkscape:window-x="-8"
     inkscape:window-y="-8"
     inkscape:window-maximized="1"
     inkscape:current-layer="svg4206" />
  <path
     style="fill:#000000"
     d="m 62.8125,268.77293 c 0,-0.67488 0.619395,-2.04598 1.376435,-3.04687 0.757038,-1.00089 1.389851,-3.00092 1.40625,-4.44449 0.0164,-1.44357 0.595382,-3.76389 1.286628,-5.15625 1.328758,-2.67648 3.326611,-12.99458 3.862178,-19.94656 0.434851,-5.64463 4.022622,-25.81325 5.378437,-30.23482 0.902025,-2.94167 0.862712,-3.73397 -0.218439,-4.40215 -0.725141,-0.44816 -1.070291,-1.06298 -0.767001,-1.36627 0.30329,-0.3033 -0.90847,-4.43952 -2.6928,-9.19161 -12.479774,-33.23654 -13.350792,-41.25178 -4.864817,-44.76679 3.343673,-1.385 11.884444,-0.70852 15.626098,1.23765 14.36024,7.46934 14.097009,7.42199 20.883811,3.75654 5.76541,-3.11382 7.67205,-5.83315 7.29252,-10.40087 -0.27756,-3.34047 -0.45872,-3.50312 -4.97555,-4.46732 -2.57812,-0.55034 -5.53125,-1.32817 -6.5625,-1.7285 -1.03125,-0.40033 -3.062222,-1.1726 -4.513266,-1.71615 -1.451043,-0.54354 -6.513542,-3.87571 -11.249998,-7.4048 -4.736455,-3.5291 -9.137865,-6.41984 -9.78091,-6.42386 -1.952486,-0.0122 -8.371229,6.36987 -12.081592,12.01259 -1.925379,2.92812 -3.759751,5.53479 -4.076381,5.7926 -0.666145,0.5424 -4.632715,6.10949 -6.33188,8.88681 -0.637464,1.04193 -2.288565,4.32022 -3.669115,7.28506 -1.380549,2.96485 -3.073831,5.39063 -3.762848,5.39063 -1.516262,0 -1.599314,-1.35072 -0.239304,-3.89193 0.557401,-1.04151 0.790147,-2.11697 0.517212,-2.3899 -0.497918,-0.49792 -12.838819,6.01718 -13.718168,7.2422 -0.775634,1.08052 -6.368032,3.72713 -7.875609,3.72713 -0.773422,0 -1.743591,0.56405 -2.155932,1.25343 -0.412339,0.68938 -3.991628,2.80133 -7.953973,4.69322 -4.4407433,2.1203 -7.4318456,4.15683 -7.7975507,5.30907 -0.7421571,2.33833 -1.6103404,2.35657 -3.6731556,0.0772 -0.94891216,-1.04852 -1.49542127,-2.87413 -1.31717581,-4.39997 0.26846144,-2.29813 0.90253581,-2.75873 5.33840171,-3.87782 2.7685656,-0.69847 5.6463564,-1.88254 6.3950894,-2.63127 0.748733,-0.74871 1.912356,-1.36131 2.585828,-1.36131 0.673471,0 1.749681,-0.63281 2.391577,-1.40625 0.641896,-0.77344 1.893792,-1.40625 2.781991,-1.40625 0.888199,0 2.378491,-0.84375 3.311759,-1.875 0.933268,-1.03125 2.037244,-1.875 2.453279,-1.875 0.416034,0 3.831118,-1.47549 7.589074,-3.27887 5.754091,-2.76128 7.099815,-3.86283 8.525155,-6.97823 1.707895,-3.73301 16.270455,-20.88453 21.042015,-24.78292 4.313166,-3.52387 11.217943,-7.14748 13.619532,-7.14748 2.695047,0 17.289443,7.34149 22.122507,11.12839 6.360878,4.984 8.815278,5.72755 11.771248,3.56609 1.57338,-1.15048 1.25519,-1.70154 -4.27394,-7.40175 C 95.283572,109.87023 88.695998,102.32664 86.501862,98.611312 84.675848,95.519316 82.744953,87.546872 79.201797,68.47019 77.906226,61.494714 77.224832,60.444275 71.578926,56.71875 68.453277,54.65625 65.096688,51.772262 64.119839,50.309888 61.854698,46.918898 53.154071,41.25 50.214722,41.25 c -3.053598,0 -5.315924,-0.952797 -4.685259,-1.973236 0.285282,-0.461595 1.489981,-0.839264 2.67711,-0.839264 1.740676,0 2.079406,-0.413317 1.750179,-2.135559 -0.25365,-1.326886 0.281192,-2.759484 1.412421,-3.783233 1.75731,-1.590342 1.839545,-1.556811 2.363453,0.963684 0.304612,1.465479 1.695937,3.319489 3.170708,4.225127 5.50482,3.380442 6.595615,4.193346 14.502825,10.808106 4.4687,3.738281 8.371044,6.796875 8.671875,6.796875 0.300831,0 0.546966,-0.632813 0.546966,-1.40625 0,-2.640385 1.499121,-1.410789 3.714742,3.046875 1.935325,3.893727 2.267322,6.160761 2.642883,18.046875 l 0.429517,13.59375 7.663933,9.375 c 8.578605,10.49389 11.196895,11.94056 12.174965,6.72697 0.33197,-1.76956 1.62865,-4.32344 2.88151,-5.675301 l 2.27792,-2.457919 -2.81034,0 c -1.73384,0 -3.69182,-0.881466 -5.11149,-2.301141 -1.94782,-1.947803 -2.30114,-3.192702 -2.30114,-8.107698 l 0,-5.806567 5.2371,-4.835403 c 6.06458,-5.599405 6.28832,-5.154795 -5.13642,-10.206755 C 93.918337,61.603839 86.075847,55.758039 83.940351,51.628444 83.22654,50.248086 80.862566,43.743475 78.687077,37.173756 73.055448,20.166907 68.474733,13.819438 58.924506,9.7888809 53.400007,7.4573339 51.662934,4.6875 55.72523,4.6875 c 1.333866,0 3.157769,0.3864091 4.053116,0.8586868 0.895347,0.4722777 3.152652,1.5195759 5.016233,2.3273291 4.93755,2.1401391 8.974404,6.7010571 12.618033,14.2561081 1.766814,3.66348 3.212388,6.956157 3.212388,7.31706 0,0.360902 0.805493,2.426009 1.789986,4.589126 0.984493,2.163117 2.105382,5.62044 2.490865,7.68294 0.942198,5.041156 3.015866,9.84375 4.250345,9.84375 0.553319,0 2.762501,1.222071 4.909291,2.715713 2.1468,1.493642 8.079353,5.07958 13.183473,7.96875 8.354,4.728758 9.82954,5.253037 14.78425,5.253037 4.14769,0 6.36581,-0.54026 9.00104,-2.192343 1.92335,-1.205789 7.32371,-4.16256 12.00079,-6.570602 4.67709,-2.408042 9.36262,-5.178367 10.41228,-6.15628 1.04967,-0.977912 2.83877,-4.876611 3.97579,-8.663774 7.81732,-26.037838 11.61856,-33.870623 19.09649,-39.349947 5.75714,-4.21844923 7.98883,-5.12112127 9.33439,-3.77556062 0.86251,0.86251032 -0.33178,2.42197832 -5.26382,6.87332802 -9.4541,8.5326666 -10.1315,9.8816996 -18.0414,35.9289286 -2.37518,7.8214 -2.98718,8.851181 -8.38136,14.10287 -4.34396,4.22922 -7.51435,6.34783 -12.50662,8.357564 -3.67815,1.480707 -7.08444,3.170413 -7.56952,3.7549 -0.60432,0.728156 0.72641,2.318868 4.2271,5.052939 5.87021,4.584689 6.64095,6.575358 5.18119,13.38196 -1.29404,6.033923 -2.34777,7.381017 -5.7736,7.381017 l -2.66946,0 2.40144,3.515625 c 1.97342,2.889025 2.3271,4.309315 1.98437,7.968755 -0.34808,3.71643 -0.15561,4.45312 1.16341,4.45312 2.10759,0 7.10899,-6.35452 10.59402,-13.460222 1.55336,-3.167184 3.60692,-6.630033 4.56346,-7.695206 1.37124,-1.526977 1.94657,-4.523193 2.71958,-14.163268 0.97254,-12.128277 3.14723,-20.901722 5.36411,-21.640686 0.63421,-0.211402 1.15311,0.27036 1.15311,1.070584 0,2.573915 2.64599,0.585534 5.59186,-4.202111 1.55556,-2.528126 3.22395,-4.596591 3.70751,-4.596591 0.48356,0 1.43668,-0.528086 2.11804,-1.173526 1.28701,-1.219159 7.71058,-5.687484 11.93215,-8.300177 1.34321,-0.831304 2.30838,-2.195149 2.15621,-3.046875 -0.33524,-1.876516 2.21523,-2.071945 2.92433,-0.224075 0.27814,0.724816 1.79984,1.602087 3.38155,1.94949 3.24334,0.712357 3.89877,2.357663 0.93922,2.357663 -2.50789,0 -4.73696,1.225894 -8.53228,4.692375 -1.69067,1.544194 -3.40124,2.807625 -3.80127,2.807625 -1.12047,0 -11.97982,8.63452 -11.97982,9.525434 0,0.432886 -0.82551,1.612576 -1.83446,2.621533 -2.50392,2.503913 -6.29033,14.195457 -6.98304,21.561991 -0.31304,3.32899 -0.98841,6.471958 -1.50083,6.984375 -0.51242,0.512417 -0.93167,2.061937 -0.93167,3.443377 0,2.706697 -4.01234,12.16034 -6.46528,15.2331 -1.56866,1.96506 -7.97947,9.31723 -10.40972,11.93832 -0.77344,0.83417 -2.14453,1.78191 -3.04688,2.1061 -0.90234,0.32419 -1.64062,1.47415 -1.64062,2.55548 0,1.08133 -0.45115,2.80903 -1.00255,3.83935 -0.73668,1.37649 -0.69298,2.24632 0.1648,3.27989 1.84682,2.22527 5.43577,0.71537 11.14432,-4.68852 6.46611,-6.121 10.28307,-8.44355 17.11825,-10.41614 5.33076,-1.53842 5.45202,-1.52979 10.414,0.74188 3.64097,1.6669 8.27693,5.52904 16.87206,14.05584 6.51839,6.46656 11.87043,12.529 11.89341,13.47207 0.0427,1.74869 11.06638,9.60005 16.13008,11.48819 1.41797,0.52872 2.57813,1.40408 2.57813,1.94523 0,0.54115 0.97082,1.35301 2.15737,1.80414 1.18656,0.45113 4.03422,2.03962 6.32813,3.52998 5.32641,3.46059 10.84931,5.95606 11.57522,5.23015 0.31036,-0.31035 0.56428,-1.3377 0.56428,-2.28302 0,-0.95787 0.67092,-1.71875 1.51554,-1.71875 1.18676,0 1.37376,0.55931 0.862,2.57813 -0.35945,1.41796 -0.88181,4.26562 -1.16079,6.32812 -0.59153,4.37314 -2.38014,6.09866 -3.12914,3.01877 -0.27838,-1.1447 -2.05217,-2.92502 -3.94174,-3.95627 -1.88959,-1.03125 -6.77162,-3.87891 -10.84897,-6.32812 -4.07734,-2.44922 -7.73436,-4.45313 -8.1267,-4.45313 -1.24781,0 -12.6702,-8.49442 -12.6702,-9.42237 0,-0.48957 -0.42188,-0.89013 -0.9375,-0.89013 -0.51563,0 -0.9375,0.63281 -0.9375,1.40625 0,2.31547 -1.67199,1.60166 -3.95058,-1.68657 -3.24047,-4.67635 -16.5146,-20.18193 -21.96617,-25.65882 -4.78485,-4.80707 -4.84942,-4.83631 -8.16315,-3.69711 -1.83708,0.63156 -4.12964,1.86277 -5.09457,2.73602 -0.96493,0.87325 -2.21166,1.58773 -2.7705,1.58773 -0.55883,0 -3.47874,2.02264 -6.48867,4.49474 -3.00994,2.47211 -7.16011,5.18386 -9.22261,6.02611 -11.82967,4.83081 -11.25571,4.44488 -11.16279,7.50544 0.0615,2.02589 1.22156,4.03829 3.93576,6.82748 6.02501,6.1915 11.1163,6.42658 19.01417,0.87796 9.15065,-6.42875 14.58305,-8.3378 19.75959,-6.9439 4.79967,1.29242 6.11195,2.8589 7.33654,8.75772 1.25966,6.06778 -0.54124,19.34032 -3.52192,25.95632 -1.02942,2.28491 -2.16621,5.94514 -2.52621,8.13384 -0.35999,2.18871 -1.00299,4.19483 -1.42889,4.45804 -1.66068,1.02636 -2.81106,12.96937 -1.58028,16.40625 0.27698,0.77344 0.99714,4.14844 1.60037,7.5 1.86433,10.35829 2.50964,13.38895 4.15744,19.52516 0.87604,3.26227 1.37718,6.49328 1.11365,7.18001 -0.57469,1.49764 1.668,10.41981 3.03238,12.06378 0.53095,0.63976 1.16229,2.61987 1.40297,4.40025 0.74,5.47397 1.46374,7.90464 2.45168,8.23395 1.71607,0.57203 0.98577,2.03435 -1.01598,2.03435 -1.16642,0 -2.15933,-0.75165 -2.44723,-1.8526 -0.38335,-1.46593 -0.84136,-1.6616 -2.19435,-0.9375 -3.58582,1.91908 -5.31292,-0.0485 -2.10292,-2.39572 1.24062,-0.90716 1.36079,-1.46834 0.52903,-2.47055 -0.59192,-0.71321 -1.36988,-3.51052 -1.72881,-6.21623 -0.35892,-2.70572 -1.01886,-5.14585 -1.46652,-5.42252 -0.44766,-0.27667 -0.81393,-1.81928 -0.81393,-3.42802 0,-2.84372 -1.34054,-8.07674 -2.84948,-11.12345 -0.40936,-0.82656 -1.01944,-3.56874 -1.35571,-6.09375 -0.33629,-2.525 -1.19094,-7.75497 -1.89924,-11.62216 -0.7083,-3.86719 -1.56259,-9.24609 -1.89842,-11.95313 -0.33583,-2.70703 -0.8542,-4.92187 -1.15193,-4.92187 -0.29773,0 -1.31542,0.70054 -2.26152,1.55676 -3.15981,2.85958 -2.81697,0.5643 1.1605,-7.76931 3.68414,-7.71902 4.7661,-10.80383 9.32961,-26.59995 0.96826,-3.35156 2.41365,-7.93164 3.21196,-10.17795 2.20891,-6.21542 1.04901,-6.84851 -8.15505,-4.45116 -11.1328,2.89973 -19.28826,6.31889 -20.66168,8.66237 -0.95699,1.63293 -2.97606,1.6276 -5.6114,-0.0148 -1.14201,-0.71173 -4.16872,-1.55953 -6.72602,-1.884 -2.55729,-0.32446 -5.06745,-1.00777 -5.57812,-1.51844 -1.6012,-1.6012 -2.49622,-1.01149 -1.32098,0.87037 0.87922,1.40785 0.86711,2.10771 -0.0557,3.21961 -1.00383,1.20955 -0.67037,1.56121 2.24317,2.36568 1.88226,0.51972 5.67017,2.64211 8.41758,4.71642 11.56798,8.73391 13.86777,24.93227 5.63192,39.66782 -2.42514,4.33903 -11.83465,14.58218 -16.83791,18.32965 -8.55602,6.4085 -21.30471,1.54391 -31.19939,-11.90495 -8.85696,-12.03839 -11.263462,-22.75742 -7.784563,-34.674 2.22705,-7.62851 11.585263,-16.01911 17.866433,-16.01911 3.39952,0 3.69078,-1.44776 0.45467,-2.25998 -3.06887,-0.77024 -2.95641,-1.74533 0.54068,-4.68794 3.45547,-2.90758 1.9238,-3.2656 -1.89428,-0.44277 -6.39021,4.72449 -19.706513,5.35124 -29.5839,1.39242 C 71.564113,152.18005 67.5,152.03542 67.5,156.5429 c 0,2.52053 3.514338,11.78535 7.297512,19.23835 1.046934,2.0625 2.436793,5.17198 3.088578,6.90996 0.651786,1.73797 1.882631,3.84735 2.735213,4.6875 1.431809,1.41092 6.566197,15.19508 6.566197,17.62809 0,1.64032 -4.643477,-0.78316 -4.803108,-2.5068 -0.07163,-0.77344 -0.453426,0.91406 -0.848435,3.75 -0.395009,2.83594 -1.400849,8.74219 -2.235199,13.125 -0.834351,4.38281 -2.788254,15.14062 -4.342005,23.90625 -1.553752,8.76563 -3.078467,17.30502 -3.388255,18.97644 -0.336496,1.81551 -0.104474,3.59173 0.576334,4.41206 1.835784,2.21198 0.25684,3.33025 -4.70216,3.33025 -3.191855,0 -4.632172,-0.38154 -4.632172,-1.22707 z"
     id="path4216"
     inkscape:connector-curvature="0" />
</svg>
